{
    "after": "c3ab65826f9c971c3a0e0b79a8e801b41a25c34f",
    "base_ref": null,
    "before": "1e212e7c36580060f62fa15b8c2c5c2ef1feb072",
    "commits": [
        {
            "added": [
                "db.config"
            ],
            "author": {
                "email": "43730525+dnhirapara@users.noreply.github.com",
                "name": "Darshik N. Hirapara",
                "username": "dnhirapara"
            },
            "committer": {
                "email": "noreply@github.com",
                "name": "GitHub",
                "username": "web-flow"
            },
            "distinct": false,
            "id": "9492482646ecc0807c0b572e0d4c0bdcf5d8b20f",
            "message": "Merge pull request #2 from dnhirapara/feature/trial\n\nFeature/trial1",
            "modified": [],
            "removed": [],
            "timestamp": "2021-07-30T19:36:20+05:30",
            "tree_id": "938a120c49d73e1cfd8bc8577c9f67a181947e8e",
            "url": "https://github.com/dnhirapara/action-repo/commit/9492482646ecc0807c0b572e0d4c0bdcf5d8b20f"
        },
        {
            "added": [
                "a.txt"
            ],
            "author": {
                "email": "darshikhirapara@gmail.com",
                "name": "Darshik Hirapara",
                "username": "dnhirapara"
            },
            "committer": {
                "email": "darshikhirapara@gmail.com",
                "name": "Darshik Hirapara",
                "username": "dnhirapara"
            },
            "distinct": false,
            "id": "1527c47e563cb0700bab1a525e1373222c2ca1df",
            "message": "added a.txt",
            "modified": [],
            "removed": [],
            "timestamp": "2021-07-31T23:29:48+05:30",
            "tree_id": "2b6a98b9303b6bc39febc8a3c7c87fb62b0f65de",
            "url": "https://github.com/dnhirapara/action-repo/commit/1527c47e563cb0700bab1a525e1373222c2ca1df"
        },
        {
            "added": [
                "b.txt"
            ],
            "author": {
                "email": "darshikhirapara@gmail.com",
                "name": "Darshik Hirapara",
                "username": "dnhirapara"
            },
            "committer": {
                "email": "darshikhirapara@gmail.com",
                "name": "Darshik Hirapara",
                "username": "dnhirapara"
            },
            "distinct": false,
            "id": "5992713d10c85d83ad7cc912186a467264165576",
            "message": "added b.txt",
            "modified": [],
            "removed": [],
            "timestamp": "2021-07-31T23:30:01+05:30",
            "tree_id": "24d75ac2c52a0936819d49062afd2b35636c917e",
            "url": "https://github.com/dnhirapara/action-repo/commit/5992713d10c85d83ad7cc912186a467264165576"
        },
        {
            "added": [],
            "author": {
                "email": "darshikhirapara@gmail.com",
                "name": "Darshik Hirapara",
                "username": "dnhirapara"
            },
            "committer": {
                "email": "darshikhirapara@gmail.com",
                "name": "Darshik Hirapara",
                "username": "dnhirapara"
            },
            "distinct": false,
            "id": "be4d641ba6bfa5ddf6f9613562014a07b7614a64",
            "message": "a.txt updated",
            "modified": [
                "a.txt"
            ],
            "removed": [],
            "timestamp": "2021-08-01T00:43:33+05:30",
            "tree_id": "1711e4aef1106885509245f36102f5bb78ac0efe",
            "url": "https://github.com/dnhirapara/action-repo/commit/be4d641ba6bfa5ddf6f9613562014a07b7614a64"
        },
        {
            "added": [],
            "author": {
                "email": "darshikhirapara@gmail.com",
                "name": "Darshik Hirapara",
                "username": "dnhirapara"
            },
            "committer": {
                "email": "darshikhirapara@gmail.com",
                "name": "Darshik Hirapara",
                "username": "dnhirapara"
            },
            "distinct": false,
            "id": "d22fc466a156ee275ab8e4771d521ed78c7b62d0",
            "message": "a.txt updated twice",
            "modified": [
                "a.txt"
            ],
            "removed": [],
            "timestamp": "2021-08-01T00:45:12+05:30",
            "tree_id": "1711e4aef1106885509245f36102f5bb78ac0efe",
            "url": "https://github.com/dnhirapara/action-repo/commit/d22fc466a156ee275ab8e4771d521ed78c7b62d0"
        },
        {
            "added": [],
            "author": {
                "email": "darshikhirapara@gmail.com",
                "name": "Darshik Hirapara",
                "username": "dnhirapara"
            },
            "committer": {
                "email": "darshikhirapara@gmail.com",
                "name": "Darshik Hirapara",
                "username": "dnhirapara"
            },
            "distinct": false,
            "id": "bab2f5a66116ed7b00528edf582a0f9d61f7e3d5",
            "message": "Merge branch 'feature/trial3' of github.com:dnhirapara/action-repo into feature/trial3",
            "modified": [],
            "removed": [],
            "timestamp": "2021-08-01T00:46:14+05:30",
            "tree_id": "1711e4aef1106885509245f36102f5bb78ac0efe",
            "url": "https://github.com/dnhirapara/action-repo/commit/bab2f5a66116ed7b00528edf582a0f9d61f7e3d5"
        },
        {
            "added": [
                "note.txt"
            ],
            "author": {
                "email": "43730525+dnhirapara@users.noreply.github.com",
                "name": "Darshik N. Hirapara",
                "username": "dnhirapara"
            },
            "committer": {
                "email": "noreply@github.com",
                "name": "GitHub",
                "username": "web-flow"
            },
            "distinct": false,
            "id": "5f720b577bddd8421a6fc72bbdf3c9f2f21a6eb1",
            "message": "Merge pull request #5 from dnhirapara/feature/trial2\n\nFeature/trial2",
            "modified": [],
            "removed": [],
            "timestamp": "2021-08-01T00:51:31+05:30",
            "tree_id": "ffd1462a3a505ca9c3e06391fb067fc29558db78",
            "url": "https://github.com/dnhirapara/action-repo/commit/5f720b577bddd8421a6fc72bbdf3c9f2f21a6eb1"
        },
        {
            "added": [
                "a.txt",
                "b.txt"
            ],
            "author": {
                "email": "43730525+dnhirapara@users.noreply.github.com",
                "name": "Darshik N. Hirapara",
                "username": "dnhirapara"
            },
            "committer": {
                "email": "noreply@github.com",
                "name": "GitHub",
                "username": "web-flow"
            },
            "distinct": true,
            "id": "c3ab65826f9c971c3a0e0b79a8e801b41a25c34f",
            "message": "Merge pull request #4 from dnhirapara/feature/trial3\n\nFeature/trial3",
            "modified": [],
            "removed": [],
            "timestamp": "2021-08-01T00:53:35+05:30",
            "tree_id": "ffd1462a3a505ca9c3e06391fb067fc29558db78",
            "url": "https://github.com/dnhirapara/action-repo/commit/c3ab65826f9c971c3a0e0b79a8e801b41a25c34f"
        }
    ],
    "compare": "https://github.com/dnhirapara/action-repo/compare/1e212e7c3658...c3ab65826f9c",
    "created": false,
    "deleted": false,
    "forced": false,
    "head_commit": {
        "added": [
            "a.txt",
            "b.txt"
        ],
        "author": {
            "email": "43730525+dnhirapara@users.noreply.github.com",
            "name": "Darshik N. Hirapara",
            "username": "dnhirapara"
        },
        "committer": {
            "email": "noreply@github.com",
            "name": "GitHub",
            "username": "web-flow"
        },
        "distinct": true,
        "id": "c3ab65826f9c971c3a0e0b79a8e801b41a25c34f",
        "message": "Merge pull request #4 from dnhirapara/feature/trial3\n\nFeature/trial3",
        "modified": [],
        "removed": [],
        "timestamp": "2021-08-01T00:53:35+05:30",
        "tree_id": "ffd1462a3a505ca9c3e06391fb067fc29558db78",
        "url": "https://github.com/dnhirapara/action-repo/commit/c3ab65826f9c971c3a0e0b79a8e801b41a25c34f"
    },
    "pusher": {
        "email": "43730525+dnhirapara@users.noreply.github.com",
        "name": "dnhirapara"
    },
    "ref": "refs/heads/feature/trial2",
    "repository": {
        "archive_url": "https://api.github.com/repos/dnhirapara/action-repo/{archive_format}{/ref}",
        "archived": false,
        "assignees_url": "https://api.github.com/repos/dnhirapara/action-repo/assignees{/user}",
        "blobs_url": "https://api.github.com/repos/dnhirapara/action-repo/git/blobs{/sha}",
        "branches_url": "https://api.github.com/repos/dnhirapara/action-repo/branches{/branch}",
        "clone_url": "https://github.com/dnhirapara/action-repo.git",
        "collaborators_url": "https://api.github.com/repos/dnhirapara/action-repo/collaborators{/collaborator}",
        "comments_url": "https://api.github.com/repos/dnhirapara/action-repo/comments{/number}",
        "commits_url": "https://api.github.com/repos/dnhirapara/action-repo/commits{/sha}",
        "compare_url": "https://api.github.com/repos/dnhirapara/action-repo/compare/{base}...{head}",
        "contents_url": "https://api.github.com/repos/dnhirapara/action-repo/contents/{+path}",
        "contributors_url": "https://api.github.com/repos/dnhirapara/action-repo/contributors",
        "created_at": 1627626129,
        "default_branch": "master",
        "deployments_url": "https://api.github.com/repos/dnhirapara/action-repo/deployments",
        "description": null,
        "disabled": false,
        "downloads_url": "https://api.github.com/repos/dnhirapara/action-repo/downloads",
        "events_url": "https://api.github.com/repos/dnhirapara/action-repo/events",
        "fork": false,
        "forks": 0,
        "forks_count": 0,
        "forks_url": "https://api.github.com/repos/dnhirapara/action-repo/forks",
        "full_name": "dnhirapara/action-repo",
        "git_commits_url": "https://api.github.com/repos/dnhirapara/action-repo/git/commits{/sha}",
        "git_refs_url": "https://api.github.com/repos/dnhirapara/action-repo/git/refs{/sha}",
        "git_tags_url": "https://api.github.com/repos/dnhirapara/action-repo/git/tags{/sha}",
        "git_url": "git://github.com/dnhirapara/action-repo.git",
        "has_downloads": true,
        "has_issues": true,
        "has_pages": false,
        "has_projects": true,
        "has_wiki": true,
        "homepage": null,
        "hooks_url": "https://api.github.com/repos/dnhirapara/action-repo/hooks",
        "html_url": "https://github.com/dnhirapara/action-repo",
        "id": 390955001,
        "issue_comment_url": "https://api.github.com/repos/dnhirapara/action-repo/issues/comments{/number}",
        "issue_events_url": "https://api.github.com/repos/dnhirapara/action-repo/issues/events{/number}",
        "issues_url": "https://api.github.com/repos/dnhirapara/action-repo/issues{/number}",
        "keys_url": "https://api.github.com/repos/dnhirapara/action-repo/keys{/key_id}",
        "labels_url": "https://api.github.com/repos/dnhirapara/action-repo/labels{/name}",
        "language": null,
        "languages_url": "https://api.github.com/repos/dnhirapara/action-repo/languages",
        "license": null,
        "master_branch": "master",
        "merges_url": "https://api.github.com/repos/dnhirapara/action-repo/merges",
        "milestones_url": "https://api.github.com/repos/dnhirapara/action-repo/milestones{/number}",
        "mirror_url": null,
        "name": "action-repo",
        "node_id": "MDEwOlJlcG9zaXRvcnkzOTA5NTUwMDE=",
        "notifications_url": "https://api.github.com/repos/dnhirapara/action-repo/notifications{?since,all,participating}",
        "open_issues": 0,
        "open_issues_count": 0,
        "owner": {
            "avatar_url": "https://avatars.githubusercontent.com/u/43730525?v=4",
            "email": "43730525+dnhirapara@users.noreply.github.com",
            "events_url": "https://api.github.com/users/dnhirapara/events{/privacy}",
            "followers_url": "https://api.github.com/users/dnhirapara/followers",
            "following_url": "https://api.github.com/users/dnhirapara/following{/other_user}",
            "gists_url": "https://api.github.com/users/dnhirapara/gists{/gist_id}",
            "gravatar_id": "",
            "html_url": "https://github.com/dnhirapara",
            "id": 43730525,
            "login": "dnhirapara",
            "name": "dnhirapara",
            "node_id": "MDQ6VXNlcjQzNzMwNTI1",
            "organizations_url": "https://api.github.com/users/dnhirapara/orgs",
            "received_events_url": "https://api.github.com/users/dnhirapara/received_events",
            "repos_url": "https://api.github.com/users/dnhirapara/repos",
            "site_admin": false,
            "starred_url": "https://api.github.com/users/dnhirapara/starred{/owner}{/repo}",
            "subscriptions_url": "https://api.github.com/users/dnhirapara/subscriptions",
            "type": "User",
            "url": "https://api.github.com/users/dnhirapara"
        },
        "private": true,
        "pulls_url": "https://api.github.com/repos/dnhirapara/action-repo/pulls{/number}",
        "pushed_at": 1627759415,
        "releases_url": "https://api.github.com/repos/dnhirapara/action-repo/releases{/id}",
        "size": 2,
        "ssh_url": "git@github.com:dnhirapara/action-repo.git",
        "stargazers": 0,
        "stargazers_count": 0,
        "stargazers_url": "https://api.github.com/repos/dnhirapara/action-repo/stargazers",
        "statuses_url": "https://api.github.com/repos/dnhirapara/action-repo/statuses/{sha}",
        "subscribers_url": "https://api.github.com/repos/dnhirapara/action-repo/subscribers",
        "subscription_url": "https://api.github.com/repos/dnhirapara/action-repo/subscription",
        "svn_url": "https://github.com/dnhirapara/action-repo",
        "tags_url": "https://api.github.com/repos/dnhirapara/action-repo/tags",
        "teams_url": "https://api.github.com/repos/dnhirapara/action-repo/teams",
        "trees_url": "https://api.github.com/repos/dnhirapara/action-repo/git/trees{/sha}",
        "updated_at": "2021-07-30T14:06:24Z",
        "url": "https://github.com/dnhirapara/action-repo",
        "watchers": 0,
        "watchers_count": 0
    },
    "sender": {
        "avatar_url": "https://avatars.githubusercontent.com/u/43730525?v=4",
        "events_url": "https://api.github.com/users/dnhirapara/events{/privacy}",
        "followers_url": "https://api.github.com/users/dnhirapara/followers",
        "following_url": "https://api.github.com/users/dnhirapara/following{/other_user}",
        "gists_url": "https://api.github.com/users/dnhirapara/gists{/gist_id}",
        "gravatar_id": "",
        "html_url": "https://github.com/dnhirapara",
        "id": 43730525,
        "login": "dnhirapara",
        "node_id": "MDQ6VXNlcjQzNzMwNTI1",
        "organizations_url": "https://api.github.com/users/dnhirapara/orgs",
        "received_events_url": "https://api.github.com/users/dnhirapara/received_events",
        "repos_url": "https://api.github.com/users/dnhirapara/repos",
        "site_admin": false,
        "starred_url": "https://api.github.com/users/dnhirapara/starred{/owner}{/repo}",
        "subscriptions_url": "https://api.github.com/users/dnhirapara/subscriptions",
        "type": "User",
        "url": "https://api.github.com/users/dnhirapara"
    }
}ttps: //api.github.com/repos/dnhirapara/action-repo/pulls{/number}", "pushed_at": "2021-07-31T19:23:35Z", "releases_url": "https://api.github.com/repos/dnhirapara/action-repo/releases{/id}", "size": 2, "ssh_url": "git@github.com:dnhirapara/action-repo.git", "stargazers_count": 0, "stargazers_url": "https://api.github.com/repos/dnhirapara/action-repo/stargazers", "statuses_url": "https://api.github.com/repos/dnhirapara/action-repo/statuses/{sha}", "subscribers_url": "https://api.github.com/repos/dnhirapara/action-repo/subscribers", "subscription_url": "https://api.github.com/repos/dnhirapara/action-repo/subscription", "svn_url": "https://github.com/dnhirapara/action-repo", "tags_url": "https://api.github.com/repos/dnhirapara/action-repo/tags", "teams_url": "https://api.github.com/repos/dnhirapara/action-repo/teams", "trees_url": "https://api.github.com/repos/dnhirapara/action-repo/git/trees{/sha}", "updated_at": "2021-07-30T14:06:24Z", "url": "https://api.github.com/repos/dnhirapara/action-repo", "watchers": 0, "watchers_count": 0}, "sha": "5f720b577bddd8421a6fc72bbdf3c9f2f21a6eb1", "user": {"avatar_url": "https://avatars.githubusercontent.com/u/43730525?v=4", "events_url": "https://api.github.com/users/dnhirapara/events{/privacy}", "followers_url": "https://api.github.com/users/dnhirapara/followers", "following_url": "https://api.github.com/users/dnhirapara/following{/other_user}", "gists_url": "https://api.github.com/users/dnhirapara/gists{/gist_id}", "gravatar_id": "", "html_url": "https://github.com/dnhirapara", "id": 43730525, "login": "dnhirapara", "node_id": "MDQ6VXNlcjQzNzMwNTI1", "organizations_url": "https://api.github.com/users/dnhirapara/orgs", "received_events_url": "https://api.github.com/users/dnhirapara/received_events", "repos_url": "https://api.github.com/users/dnhirapara/repos", "site_admin": false, "starred_url": "https://api.github.com/users/dnhirapara/starred{/owner}{/repo}", "subscriptions_url": "https://api.github.com/users/dnhirapara/subscriptions", "type": "User", "url": "https://api.github.com/users/dnhirapara"}}, "html_url": "https://github.com/dnhirapara/action-repo/pull/4", "id": 700747419, "issue_url": "https://api.github.com/repos/dnhirapara/action-repo/issues/4", "labels": [], "locked": false, "maintainer_can_modify": false, "merge_commit_sha": "c3ab65826f9c971c3a0e0b79a8e801b41a25c34f", "mergeable": null, "mergeable_state": "unknown", "merged": true, "merged_at": "2021-07-31T19:23:35Z", "merged_by": {"avatar_url": "https://avatars.githubusercontent.com/u/43730525?v=4", "events_url": "https://api.github.com/users/dnhirapara/events{/privacy}", "followers_url": "https://api.github.com/users/dnhirapara/followers", "following_url": "https://api.github.com/users/dnhirapara/following{/other_user}", "gists_url": "https://api.github.com/users/dnhirapara/gists{/gist_id}", "gravatar_id": "", "html_url": "https://github.com/dnhirapara", "id": 43730525, "login": "dnhirapara", "node_id": "MDQ6VXNlcjQzNzMwNTI1", "organizations_url": "https://api.github.com/users/dnhirapara/orgs", "received_events_url": "https://api.github.com/users/dnhirapara/received_events", "repos_url": "https://api.github.com/users/dnhirapara/repos", "site_admin": false, "starred_url": "https://api.github.com/users/dnhirapara/starred{/owner}{/repo}", "subscriptions_url": "https://api.github.com/users/dnhirapara/subscriptions", "type": "User", "url": "https://api.github.com/users/dnhirapara"}, "milestone": null, "node_id": "MDExOlB1bGxSZXF1ZXN0NzAwNzQ3NDE5", "number": 4, "patch_url": "https://github.com/dnhirapara/action-repo/pull/4.patch", "rebaseable": null, "requested_reviewers": [], "requested_teams": [], "review_comment_url": "https://api.github.com/repos/dnhirapara/action-repo/pulls/comments{/number}", "review_comments": 0, "review_comments_url": "https://api.github.com/repos/dnhirapara/action-repo/pulls/4/comments", "state": "closed", "statuses_url": "https://api.github.com/repos/dnhirapara/action-repo/statuses/5f720b577bddd8421a6fc72bbdf3c9f2f21a6eb1", "title": "Feature/trial3", "updated_at": "2021-07-31T19:23:36Z", "url": "https://api.github.com/repos/dnhirapara/action-repo/pulls/4", "user": {"avatar_url": "https://avatars.githubusercontent.com/u/43730525?v=4", "events_url": "https://api.github.com/users/dnhirapara/events{/privacy}", "followers_url": "https://api.github.com/users/dnhirapara/followers", "following_url": "https://api.github.com/users/dnhirapara/following{/other_user}", "gists_url": "https://api.github.com/users/dnhirapara/gists{/gist_id}", "gravatar_id": "", "html_url": "https://github.com/dnhirapara", "id": 43730525, "login": "dnhirapara", "node_id": "MDQ6VXNlcjQzNzMwNTI1", "organizations_url": "https://api.github.com/users/dnhirapara/orgs", "received_events_url": "https://api.github.com/users/dnhirapara/received_events", "repos_url": "https://api.github.com/users/dnhirapara/repos", "site_admin": false, "starred_url": "https://api.github.com/users/dnhirapara/starred{/owner}{/repo}", "subscriptions_url": "https://api.github.com/users/dnhirapara/subscriptions", "type": "User", "url": "https://api.github.com/users/dnhirapara"}}, "repository": {"archive_url": "https://api.github.com/repos/dnhirapara/action-repo/{archive_format}{/ref}", "archived": false, "assignees_url": "https://api.github.com/repos/dnhirapara/action-repo/assignees{/user}", "blobs_url": "https://api.github.com/repos/dnhirapara/action-repo/git/blobs{/sha}", "branches_url": "https://api.github.com/repos/dnhirapara/action-repo/branches{/branch}", "clone_url": "https://github.com/dnhirapara/action-repo.git", "collaborators_url": "https://api.github.com/repos/dnhirapara/action-repo/collaborators{/collaborator}", "comments_url": "https://api.github.com/repos/dnhirapara/action-repo/comments{/number}", "commits_url": "https://api.github.com/repos/dnhirapara/action-repo/commits{/sha}", "compare_url": "https://api.github.com/repos/dnhirapara/action-repo/compare/{base}...{head}", "contents_url": "https://api.github.com/repos/dnhirapara/action-repo/contents/{+path}", "contributors_url": "https://api.github.com/repos/dnhirapara/action-repo/contributors", "created_at": "2021-07-30T06:22:09Z", "default_branch": "master", "deployments_url": "https://api.github.com/repos/dnhirapara/action-repo/deployments", "description": null, "disabled": false, "downloads_url": "https://api.github.com/repos/dnhirapara/action-repo/downloads", "events_url": "https://api.github.com/repos/dnhirapara/action-repo/events", "fork": false, "forks": 0, "forks_count": 0, "forks_url": "https://api.github.com/repos/dnhirapara/action-repo/forks", "full_name": "dnhirapara/action-repo", "git_commits_url": "https://api.github.com/repos/dnhirapara/action-repo/git/commits{/sha}", "git_refs_url": "https://api.github.com/repos/dnhirapara/action-repo/git/refs{/sha}", "git_tags_url": "https://api.github.com/repos/dnhirapara/action-repo/git/tags{/sha}", "git_url": "git://github.com/dnhirapara/action-repo.git", "has_downloads": true, "has_issues": true, "has_pages": false, "has_projects": true, "has_wiki": true, "homepage": null, "hooks_url": "https://api.github.com/repos/dnhirapara/action-repo/hooks", "html_url": "https://github.com/dnhirapara/action-repo", "id": 390955001, "issue_comment_url": "https://api.github.com/repos/dnhirapara/action-repo/issues/comments{/number}", "issue_events_url": "https://api.github.com/repos/dnhirapara/action-repo/issues/events{/number}", "issues_url": "https://api.github.com/repos/dnhirapara/action-repo/issues{/number}", "keys_url": "https://api.github.com/repos/dnhirapara/action-repo/keys{/key_id}", "labels_url": "https://api.github.com/repos/dnhirapara/action-repo/labels{/name}", "language": null, "languages_url": "https://api.github.com/repos/dnhirapara/action-repo/languages", "license": null, "merges_url": "https://api.github.com/repos/dnhirapara/action-repo/merges", "milestones_url": "https://api.github.com/repos/dnhirapara/action-repo/milestones{/number}", "mirror_url": null, "name": "action-repo", "node_id": "MDEwOlJlcG9zaXRvcnkzOTA5NTUwMDE=", "notifications_url": "https://api.github.com/repos/dnhirapara/action-repo/notifications{?since,all,participating}", "open_issues": 0, "open_issues_count": 0, "owner": {"avatar_url": "https://avatars.githubusercontent.com/u/43730525?v=4", "events_url": "https://api.github.com/users/dnhirapara/events{/privacy}", "followers_url": "https://api.github.com/users/dnhirapara/followers", "following_url": "https://api.github.com/users/dnhirapara/following{/other_user}", "gists_url": "https://api.github.com/users/dnhirapara/gists{/gist_id}", "gravatar_id": "", "html_url": "https://github.com/dnhirapara", "id": 43730525, "login": "dnhirapara", "node_id": "MDQ6VXNlcjQzNzMwNTI1", "organizations_url": "https://api.github.com/users/dnhirapara/orgs", "received_events_url": "https://api.github.com/users/dnhirapara/received_events", "repos_url": "https://api.github.com/users/dnhirapara/repos", "site_admin": false, "starred_url": "https://api.github.com/users/dnhirapara/starred{/owner}{/repo}", "subscriptions_url": "https://api.github.com/users/dnhirapara/subscriptions", "type": "User", "url": "https://api.github.com/users/dnhirapara"}, "private": true, "pulls_url": "https://api.github.com/repos/dnhirapara/action-repo/pulls{/number}", "pushed_at": "2021-07-31T19:23:35Z", "releases_url": "https://api.github.com/repos/dnhirapara/action-repo/releases{/id}", "size": 2, "ssh_url": "git@github.com:dnhirapara/action-repo.git", "stargazers_count": 0, "stargazers_url": "https://api.github.com/repos/dnhirapara/action-repo/stargazers", "statuses_url": "https://api.github.com/repos/dnhirapara/action-repo/statuses/{sha}", "subscribers_url": "https://api.github.com/repos/dnhirapara/action-repo/subscribers", "subscription_url": "https://api.github.com/repos/dnhirapara/action-repo/subscription", "svn_url": "https://github.com/dnhirapara/action-repo", "tags_url": "https://api.github.com/repos/dnhirapara/action-repo/tags", "teams_url": "https://api.github.com/repos/dnhirapara/action-repo/teams", "trees_url": "https://api.github.com/repos/dnhirapara/action-repo/git/trees{/sha}", "updated_at": "2021-07-30T14:06:24Z", "url": "https://api.github.com/repos/dnhirapara/action-repo", "watchers": 0, "watchers_count": 0}, "sender": {"avatar_url": "https://avatars.githubusercontent.com/u/43730525?v=4", "events_url": "https://api.github.com/users/dnhirapara/events{/privacy}", "followers_url": "https://api.github.com/users/dnhirapara/followers", "following_url": "https://api.github.com/users/dnhirapara/following{/other_user}", "gists_url": "https://api.github.com/users/dnhirapara/gists{/gist_id}", "gravatar_id": "", "html_url": "https://github.com/dnhirapara", "id": 43730525, "login": "dnhirapara", "node_id": "MDQ6VXNlcjQzNzMwNTI1", "organizations_url": "https://api.github.com/users/dnhirapara/orgs", "received_events_url": "https://api.github.com/users/dnhirapara/received_events", "repos_url": "https://api.github.com/users/dnhirapara/repos", "site_admin": false, "starred_url": "https://api.github.com/users/dnhirapara/starred{/owner}{/repo}", "subscriptions_url": "https://api.github.com/users/dnhirapara/subscriptions", "type": "User", "url": "https://api.github.com/users/dnhirapara"}}